^C:\USERS\ANTON\ONEDRIVE\DOCUMENTS\VISUAL STUDIO 2015\PROJECTS\WIN32_LAB1\WIN32_LAB1\DEBUG\STDAFX.OBJ|C:\USERS\ANTON\ONEDRIVE\DOCUMENTS\VISUAL STUDIO 2015\PROJECTS\WIN32_LAB1\WIN32_LAB1\DEBUG\WIN32_LAB1.OBJ|C:\USERS\ANTON\ONEDRIVE\DOCUMENTS\VISUAL STUDIO 2015\PROJECTS\WIN32_LAB1\WIN32_LAB1\DEBUG\WIN32_LAB1.RES
C:\USERS\ANTON\ONEDRIVE\DOCUMENTS\VISUAL STUDIO 2015\PROJECTS\WIN32_LAB1\DEBUG\WIN32_LAB1.ILK
C:\USERS\ANTON\ONEDRIVE\DOCUMENTS\VISUAL STUDIO 2015\PROJECTS\WIN32_LAB1\DEBUG\WIN32_LAB1.EXE
C:\USERS\ANTON\ONEDRIVE\DOCUMENTS\VISUAL STUDIO 2015\PROJECTS\WIN32_LAB1\DEBUG\WIN32_LAB1.PDB
